Twitter Capstone
…
dat = raw_dat %>%
  unnest_tokens(word, TweetText) %>%
  anti_join(stop_words, by = 'word')

tweets %>%
  count(words, sort = TRUE)

## # A tibble: 2,036 x 2
##    words              n
##    <chr>          <int>
##  1 i                831
##  2 to               440
##  3 and              428
##  4 you              308
##  5 a                297
##  6 the              237
##  7 that             232
##  8 my               227
##  9 is               180
## 10 @petebuttigieg   154
## # ... with 2,026 more rows
…
